{
    "options": {
        "fill_vertical": true,
        "fill_horizontal": true,
        "zoom_detail_factor": 1
    },
    "default_zoom": {
        "tmin": "2017-09-07T06:00:00.000Z",
        "tmax": "2017-09-09T18:00:00.000Z"
    },
    "global_margins": {
        "top": 0,
        "bottom": 0,
        "left": 65,
        "right": 30
    },
    "subplots": [
        {
            "title": "Hp30 index",
            "visible": true,
            "legend_visible": false,
            "ydomain": {
                "default": [0, "9"],
                "bounds": ["0", "15"]
            },
            "y_label": "",
            "scale": "linear",
            "ytick_format": "d",
            "xaxis_annotation": "hidden",
            "yaxis_annotation": "visible",
            "height": 80,
            "annot_options": {
                "annot_horizontal_grid_lines": [],
                "annot_text_items": []
            },
            "margins": {
                "top": 10,
                "bottom": 10
            },
            "plot_elements": [
                {
                    "title": "Hp30 index",
                    "visible": true,
                    "plot_options": {
                        "plot_type": "bars",
                        "stroke": "#000000",
                        "stroke-width": "0",
                        "stroke-opacity": "1",
                        "fill": "#888888",
                        "fill-opacity": "1",
                        "curve_type": "linear",
                        "bar_offset_seconds": 1800,
                        "bar_padding": 0.2,
                        "bar_text": true,
                        "fill_colors": [
                            {
                                "threshold": 4.6,
                                "color": "#88CC66"
                            },
                            {
                                "threshold": 5.6,
                                "color": "#FFF033"
                            },
                            {
                                "threshold": 6.6,
                                "color": "#FFBB44"
                            },
                            {
                                "threshold": 7.6,
                                "color": "#DD9922"
                            },
                            {
                                "threshold": 8.6,
                                "color": "#FF2020"
                            },
                            {
                                "threshold": 9.6,
                                "color": "#A02020"
                            },
                            {
                                "threshold": 1000,
                                "color": "#300000"
                            }
                        ]
                    },
                    "data": {
                        "server": "https://data.spaceweather.knmi.nl/hapi",
                        "dataset": "hp30_index",
                        "parameter": "Hp30",
                        "time_parameter": "time",
                        "cadence_alternative_datasets_mode": "x_relations",
                        "zoom_detail_factor": 1
                    },
                    "data_transforms": {}
                }
            ]
        },
        {
            "title": "Auroral electroject indices: OMNI2 AE and Supermag SME U/L indices",
            "visible": true,
            "legend_visible": true,
            "ydomain": {
                "default": [-5000, 2000],
                "bounds": ["-5000", "5000"]
            },
            "y_label": "AE index (nT)",
            "scale": "linear",
            "ytick_format": "d",
            "xaxis_annotation": "visible",
            "yaxis_annotation": "visible",
            "height": 150,
            "annot_options": {
                "annot_horizontal_grid_lines": [],
                "annot_text_items": []
            },
            "margins": {
                "top": 30,
                "bottom": 40
            },
            "plot_elements": [
                {
                    "title": "OMNI2 AE/AL indices",
                    "visible": true,
                    "plot_options": {
                        "plot_type": "area",
                        "stroke": "#8525b1",
                        "stroke-width": "1",
                        "stroke-opacity": "1",
                        "fill": "#e8d2f3",
                        "fill-opacity": 1,
                        "curve_type": "linear",
                        "baseline_mode": "parameter",
                        "baseline_stroke": "#8525b1",
                        "baseline_stroke-width": "1",
                        "baseline_stroke-opacity": "1"
                    },
                    "cadence": "PT1M",
                    "data": {
                        "server": "https://cdaweb.gsfc.nasa.gov/hapi",
                        "dataset": "OMNI_HRO2_1MIN",
                        "parameter": "AU_INDEX",
                        "time_parameter": "Time",
                        "baseline_parameter": "AL_INDEX",
                        "cadence_alternative_datasets_mode": "off",
                        "parameter_multiplier": 1,
                        "zoom_detail_factor": 4
                    },
                    "data_transforms": {}
                },
                {
                    "title": "Supermag SME U/L indices",
                    "visible": true,
                    "plot_options": {
                        "plot_type": "area",
                        "stroke": "#000000",
                        "stroke-width": 0,
                        "stroke-opacity": 0,
                        "fill": "#888888",
                        "fill-opacity": 0.3,
                        "curve_type": "linear",
                        "baseline_mode": "parameter"
                    },
                    "data": {
                        "server": "https://data.spaceweather.knmi.nl/hapi",
                        "dataset": "supermag_sme_index",
                        "parameter": "smu",
                        "time_parameter": "time",
                        "baseline_parameter": "sml",
                        "cadence_alternative_datasets_mode": "x_relations",
                        "parameter_multiplier": 1,
                        "zoom_detail_factor": 4
                    },
                    "data_transforms": {
                        "parameter_multiplier": 0,
                        "parameter_offset": 0,
                        "parameter_offset_remove_mean": false
                    }
                }
            ]
        },
        {
            "title": "Intermagnet magnetometer X-component variation",
            "visible": true,
            "legend_visible": true,
            "ydomain": {
                "default": [-2000, 2000],
                "bounds": ["-2000", "2000"]
            },
            "y_label": "Magnetic field (nT)",
            "scale": "linear",
            "ytick_format": "d",
            "xaxis_annotation": "visible",
            "yaxis_annotation": "visible",
            "height": 150,
            "annot_options": {
                "annot_horizontal_grid_lines": [],
                "annot_text_items": []
            },
            "margins": {
                "top": 30,
                "bottom": 40
            },
            "plot_elements": [
                {
                    "title": "Abisko",
                    "visible": true,
                    "plot_options": {
                        "plot_type": "line",
                        "stroke": "#2ca02c",
                        "stroke-width": 3,
                        "stroke-opacity": "1",
                        "curve_type": "linear",
                        "baseline_mode": ""
                    },
                    "data": {
                        "server": "https://imag-data.bgs.ac.uk/GIN_V1/hapi",
                        "dataset": "abk/best-avail/PT1M/xyzf",
                        "parameter": "Field_Vector",
                        "parameter_component_index": 0,
                        "time_parameter": "Time",
                        "cadence_alternative_datasets_mode": "intermagnet",
                        "refetch_interval_seconds": 300,
                        "zoom_detail_factor": 4
                    },
                    "data_transforms": {
                        "parameter_multiplier": 1,
                        "parameter_offset": 0,
                        "parameter_offset_remove_mean": true
                    }
                },
                {
                    "title": "Barrow",
                    "visible": true,
                    "plot_options": {
                        "plot_type": "line",
                        "stroke": "#98df8a",
                        "stroke-width": 3,
                        "stroke-opacity": "1",
                        "curve_type": "linear",
                        "baseline_mode": ""
                    },
                    "data": {
                        "server": "https://imag-data.bgs.ac.uk/GIN_V1/hapi",
                        "dataset": "brw/best-avail/PT1M/xyzf",
                        "parameter": "Field_Vector",
                        "parameter_component_index": 0,
                        "time_parameter": "Time",
                        "cadence_alternative_datasets_mode": "intermagnet",
                        "refetch_interval_seconds": 300,
                        "zoom_detail_factor": 4
                    },
                    "data_transforms": {
                        "parameter_multiplier": 1,
                        "parameter_offset": 0,
                        "parameter_offset_remove_mean": true
                    }
                },
                {
                    "title": "College",
                    "visible": true,
                    "plot_options": {
                        "plot_type": "line",
                        "stroke": "#c49c94",
                        "stroke-width": 3,
                        "stroke-opacity": "1",
                        "curve_type": "linear",
                        "baseline_mode": ""
                    },
                    "data": {
                        "server": "https://imag-data.bgs.ac.uk/GIN_V1/hapi",
                        "dataset": "cmo/best-avail/PT1M/xyzf",
                        "parameter": "Field_Vector",
                        "parameter_component_index": 0,
                        "time_parameter": "Time",
                        "cadence_alternative_datasets_mode": "intermagnet",
                        "refetch_interval_seconds": 300,
                        "zoom_detail_factor": 4
                    },
                    "data_transforms": {
                        "parameter_multiplier": 1,
                        "parameter_offset": 0,
                        "parameter_offset_remove_mean": true
                    }
                },
                {
                    "title": "Yellowknife",
                    "visible": true,
                    "plot_options": {
                        "plot_type": "line",
                        "stroke": "#ff9896",
                        "stroke-width": 3,
                        "stroke-opacity": "1",
                        "curve_type": "linear",
                        "baseline_mode": ""
                    },
                    "data": {
                        "server": "https://imag-data.bgs.ac.uk/GIN_V1/hapi",
                        "dataset": "ykc/best-avail/PT1M/xyzf",
                        "parameter": "Field_Vector",
                        "parameter_component_index": 0,
                        "time_parameter": "Time",
                        "cadence_alternative_datasets_mode": "intermagnet",
                        "refetch_interval_seconds": 300,
                        "zoom_detail_factor": 4
                    },
                    "data_transforms": {
                        "parameter_multiplier": 1,
                        "parameter_offset": 0,
                        "parameter_offset_remove_mean": true
                    }
                },
                {
                    "title": "Fort Churchill",
                    "visible": true,
                    "plot_options": {
                        "plot_type": "line",
                        "stroke": "#aec7e8",
                        "stroke-width": 3,
                        "stroke-opacity": 1,
                        "curve_type": "linear",
                        "baseline_mode": ""
                    },
                    "data": {
                        "server": "https://imag-data.bgs.ac.uk/GIN_V1/hapi",
                        "dataset": "fcc/best-avail/PT1M/xyzf",
                        "parameter": "Field_Vector",
                        "parameter_component_index": 0,
                        "time_parameter": "Time",
                        "cadence_alternative_datasets_mode": "intermagnet",
                        "refetch_interval_seconds": 300,
                        "zoom_detail_factor": 4
                    },
                    "data_transforms": {
                        "parameter_multiplier": 1,
                        "parameter_offset": 0,
                        "parameter_offset_remove_mean": true
                    }
                },
                {
                    "title": "Narsarsuaq",
                    "visible": true,
                    "plot_options": {
                        "plot_type": "line",
                        "stroke": "#ff7f0e",
                        "stroke-width": 3,
                        "stroke-opacity": "1",
                        "curve_type": "linear",
                        "baseline_mode": ""
                    },
                    "data": {
                        "server": "https://imag-data.bgs.ac.uk/GIN_V1/hapi",
                        "dataset": "naq/best-avail/PT1M/xyzf",
                        "parameter": "Field_Vector",
                        "parameter_component_index": 0,
                        "time_parameter": "Time",
                        "cadence_alternative_datasets_mode": "intermagnet",
                        "refetch_interval_seconds": 300,
                        "zoom_detail_factor": 4
                    },
                    "data_transforms": {
                        "parameter_multiplier": 1,
                        "parameter_offset": 0,
                        "parameter_offset_remove_mean": true
                    }
                },
                {
                    "title": "Sanikiluaq (Poste-de-la-Baleine)",
                    "visible": true,
                    "plot_options": {
                        "plot_type": "line",
                        "stroke": "#d62728",
                        "stroke-width": 3,
                        "stroke-opacity": "1",
                        "curve_type": "linear",
                        "baseline_mode": ""
                    },
                    "data": {
                        "server": "https://imag-data.bgs.ac.uk/GIN_V1/hapi",
                        "dataset": "pbq/best-avail/PT1M/xyzf",
                        "parameter": "Field_Vector",
                        "parameter_component_index": 0,
                        "time_parameter": "Time",
                        "cadence_alternative_datasets_mode": "intermagnet",
                        "refetch_interval_seconds": 300,
                        "zoom_detail_factor": 4
                    },
                    "data_transforms": {
                        "parameter_multiplier": 1,
                        "parameter_offset": -400,
                        "parameter_offset_remove_mean": true
                    }
                }
            ]
        }
    ]
}
